…
# Extract tokens
tidy_books <- original_books %>% 
  unnest_tokens(word, text)

tidy_books
```

    ## # A tibble: 725,055 × 4
    ##    book                line_number chapter word       
    ##    <fct>                     <int>   <int> <chr>      
    ##  1 Sense & Sensibility           1       0 sense      
    ##  2 Sense & Sensibility           1       0 and        
    ##  3 Sense & Sensibility           1       0 sensibility
    ##  4 Sense & Sensibility           3       0 by         
    ##  5 Sense & Sensibility           3       0 jane       
    ##  6 Sense & Sensibility           3       0 austen     
    ##  7 Sense & Sensibility           5       0 1811       
    ##  8 Sense & Sensibility          10       1 chapter    
    ##  9 Sense & Sensibility          10       1 1          
    ## 10 Sense & Sensibility          13       1 the        
    ## # … with 725,045 more rows

I have used Python before for text analysis and I would structure the
DataFrame in one document per row format. The one token per row format
provides some noticeable advantages, one being using `anti_join` to
remove stop words:

``` r
# Remove stop words
tidy_books %>% 
  anti_join(stop_words, by="word")
```

    ## # A tibble: 217,609 × 4
    ##    book                line_number chapter word       
    ##    <fct>                     <int>   <int> <chr>      
    ##  1 Sense & Sensibility           1       0 sense      
    ##  2 Sense & Sensibility           1       0 sensibility
    ##  3 Sense & Sensibility           3       0 jane       
    ##  4 Sense & Sensibility           3       0 austen     
    ##  5 Sense & Sensibility           5       0 1811       
    ##  6 Sense & Sensibility          10       1 chapter    
    ##  7 Sense & Sensibility          10       1 1          
    ##  8 Sense & Sensibility          13       1 family     
    ##  9 Sense & Sensibility          13       1 dashwood   
    ## 10 Sense & Sensibility          13       1 settled    
    ## # … with 217,599 more rows
…
``` r
# Get bing sentiment lexicon
bing <- get_sentiments("bing")

# Join the sentiments for the tokens in Emma
emma_sentiments <- tidy_books %>% 
  filter(book == "Emma") %>% 
  inner_join(bing, by="word")

emma_sentiments
```

    ## # A tibble: 11,966 × 5
    ##    book  line_number chapter word         sentiment
    ##    <fct>       <int>   <int> <chr>        <chr>    
    ##  1 Emma           15       1 handsome     positive 
    ##  2 Emma           15       1 clever       positive 
    ##  3 Emma           15       1 rich         positive 
    ##  4 Emma           15       1 comfortable  positive 
    ##  5 Emma           16       1 happy        positive 
    ##  6 Emma           16       1 best         positive 
    ##  7 Emma           18       1 distress     negative 
    ##  8 Emma           18       1 vex          negative 
    ##  9 Emma           20       1 affectionate positive 
    ## 10 Emma           21       1 indulgent    positive 
    ## # … with 11,956 more rows

Positive words for the book Emma:

``` r
emma_sentiments %>% 
  filter(sentiment == "positive") %>% 
  count(word, sort = TRUE)
```

    ## # A tibble: 668 × 2
    ##    word         n
    ##    <chr>    <int>
    ##  1 well       401
    ##  2 good       359
    ##  3 great      264
    ##  4 like       200
    ##  5 better     173
    ##  6 enough     129
    ##  7 happy      125
    ##  8 love       117
    ##  9 pleasure   115
    ## 10 right       92
    ## # … with 658 more rows

Negative words for the book Emma:

``` r
emma_sentiments %>% 
  filter(sentiment == "negative") %>% 
  count(word, sort = TRUE)
```

    ## # A tibble: 876 × 2
    ##    word           n
    ##    <chr>      <int>
    ##  1 miss         599
    ##  2 poor         136
    ##  3 doubt         98
    ##  4 afraid        65
    ##  5 sorry         61
    ##  6 bad           60
    ##  7 cold          54
    ##  8 impossible    41
    ##  9 object        39
    ## 10 wrong         39
    ## # … with 866 more rows
…
Calculating tf-idf for the austen books:

``` r
# Calculate tf-idf for austen books
book_tf_idf <- book_words %>% 
  bind_tf_idf(word, book, n)

# Sort by tf-idf and select columns we want
book_tf_idf %>% 
  select(book, word, n, tf, idf, tf_idf) %>% 
  arrange(desc(tf_idf))
```

    ## # A tibble: 40,379 × 6
    ##    book                word          n      tf   idf  tf_idf
    ##    <fct>               <chr>     <int>   <dbl> <dbl>   <dbl>
    ##  1 Sense & Sensibility elinor      623 0.00519  1.79 0.00931
    ##  2 Sense & Sensibility marianne    492 0.00410  1.79 0.00735
    ##  3 Mansfield Park      crawford    493 0.00307  1.79 0.00551
    ##  4 Pride & Prejudice   darcy       373 0.00305  1.79 0.00547
    ##  5 Persuasion          elliot      254 0.00304  1.79 0.00544
    ##  6 Emma                emma        786 0.00488  1.10 0.00536
    ##  7 Northanger Abbey    tilney      196 0.00252  1.79 0.00452
    ##  8 Emma                weston      389 0.00242  1.79 0.00433
    ##  9 Pride & Prejudice   bennet      294 0.00241  1.79 0.00431
    ## 10 Persuasion          wentworth   191 0.00228  1.79 0.00409
    ## # … with 40,369 more rows
…
