…
#### Calculating tf-idf for the description fields

``` r
# Calculate TF-IDF for description tokens
desc_tf_idf <- nasa_desc %>% 
  count(id, word, sort = TRUE) %>%
  ungroup() %>%
  bind_tf_idf(word, id, n)

desc_tf_idf %>% 
  arrange(-tf_idf)
```

    ## # A tibble: 2,018,928 × 6
    ##    id                             word                      n    tf   idf tf_idf
    ##    <chr>                          <chr>                 <int> <dbl> <dbl>  <dbl>
    ##  1 C1633360161-OB_DAAC            bio_optics_chl_polar…     4     1 10.4   10.4 
    ##  2 C1633360353-OB_DAAC            gulfcarbon                4     1 10.4   10.4 
    ##  3 C1206487217-ASF                palsar_radiometric_t…     2     1 10.4   10.4 
    ##  4 C1206487504-ASF                palsar_radiometric_t…     2     1 10.4   10.4 
    ##  5 TECHPORT_33575                 abcd                      1     1 10.4   10.4 
    ##  6 TECHPORT_94546                 xxxx                      1     1 10.4   10.4 
    ##  7 urn:nasa:pds:context_pds3:dat… unk                       1     1  9.66   9.66
    ##  8 urn:nasa:pds:lab.hydrocarbon_… ________                  1     1  9.66   9.66
    ##  9 urn:nasa:pds:mgs_tes_recalib_… ________                  1     1  9.66   9.66
    ## 10 TECHPORT_94119                 aerosciences              1     1  9.26   9.26
    ## # … with 2,018,918 more rows
…
``` r
# Split tokens and remove stop words
usenet_words <- cleaned_text %>%
  unnest_tokens(word, text) %>%
  filter(str_detect(word, "[a-z']$"),
         !word %in% stop_words$word)

usenet_words
```

    ## # A tibble: 1,237,297 × 3
    ##    newsgroup   id    word     
    ##    <chr>       <chr> <chr>    
    ##  1 alt.atheism 49960 archive  
    ##  2 alt.atheism 49960 atheism  
    ##  3 alt.atheism 49960 resources
    ##  4 alt.atheism 49960 alt      
    ##  5 alt.atheism 49960 atheism  
    ##  6 alt.atheism 49960 archive  
    ##  7 alt.atheism 49960 resources
    ##  8 alt.atheism 49960 modified 
    ##  9 alt.atheism 49960 december 
    ## 10 alt.atheism 49960 version  
    ## # … with 1,237,287 more rows
…
